SECTION,SUBJECT CODE,EXAM TYPE,SUBJECT,UNITS
AT4C,Intaud,Lec,Internal Auditing,6
IS2A,Acctfin*,Lec,Accounting and Financials,3
H2B,Basiacc,Lec,Basic Accounting,3
AT4D,Intaud,Lec,Internal Auditing,6
AT2A,Macecon*,Lec,Macroeconomic Theory & Practice,3
F1A,Micecon,Lec,Microeconomics,3
A2A,Macecon,Lec,Macroeconomics,3
S3A,Ecointe,Lec,International Economics,3
M1B,Micecon,Lec,Microeconomics,3
S3A,Econman,Lec,Managerial Economics,3
AT4B,Mac-two,Lec,Managerial Accounting II,3
AT3A,Finman1,Lec,Financial Management 1,3
AT4A,Mac-two,Lec,Managerial Accounting II,3
AT4E,Accthes2,Lec,Accounting Thesis,3
A4B,Manacon,Lec,Management Consultancy,3
AT1B,Basifin,Lec,Basic Finance,3
AT1A,Basifin,Lec,Basic Finance,3
C2A,EconTax,Lec,Economics with Taxation and Land Reform,3
A2B,Macecon,Lec,Macroeconomics,3
T2B,EconTax,Lec,Economics with Taxation and Land Reform,3
T2A,EconTax,Lec,Economics with Taxation and Land Reform,3
M2B,Fin-Acc,Lec,Financial Accounting,3
M2C,Fin-Acc,Lec,Financial Accounting,3
L2A,Statre1,Lec,Statistical Research 1,3
K2A,Micecon,Lec,Microeconomics,3
N2A,Micecon,Lec,Microeconomics,3
A1E,Funacco2,Lec,Fundamentals of Accounting,6
A1D,Funacco2,Lec,Fundamentals of Accounting,6
A4B,Acc-rev3,Lec,Accounting Review,3
A4C,Acc-rev3,Lec,Accounting Review,3
A4A,Acc-rev3,Lec,Accounting Review,3
AT4A,Accthes2,Lec,Accounting Thesis,3
AT4B,Accthes2,Lec,Accounting Thesis,3
T2C,EconTax,Lec,Economics with Taxation and Land Reform,3
A4D,Manacon,Lec,Management Consultancy,3
A4A,Manacon,Lec,Management Consultancy,3
A3B,Bus-tax*,Lec,Business and Transfer Taxes,3
A3A,Bus-tax*,Lec,Business and Transfer Taxes,3
AT4C,Accthes2,Lec,Accounting Thesis,3
L3A,Negotin,Lec,Negotiable Instruments,3
F3A,Finres 1,Lec,Financial Research 1,3
F3C,Finres 1,Lec,Financial Research 1,3
M3D,Makres1,Lec,Marketing Research 1,3
M3C,Makres1,Lec,Marketing Research 1,3
M3E,Makres1,Lec,Marketing Research 1,3
A4A,C-audit**,Lec,Auditing in CIS Environment,3
A4B,C-audit**,Lec,Auditing in CIS Environment,3
A4C,C-audit**,Lec,Auditing in CIS Environment,3
AT2B,Fin-two**,Lec,Financial Accounting & Reporting,6
AT2A,Fin-two**,Lec,Financial Accounting & Reporting,6
IT2A,Actgpri,Lec,Acounting Principles,3
IS4A,Humani3,Lec,Humanities 3,3
AT3C,Compacc*,Lec,Advance Computer Application for Accountants,3
L4A,Lablaws,Lec,Labor Laws & Social Legislation,3
L4B,Lablaws,Lec,Labor Laws & Social Legislation,3
J2A,Basicon,Lec,Basic Economics w/ Taxation & Agrarian Reform,3
W2A,Basicon,Lec,Basic Economics w/ Taxation & Agrarian Reform,3
J2B,Basicon,Lec,Basic Economics w/ Taxation & Agrarian Reform,3
U3B,Basicon,Lec,Basic Economics w/ Taxation & Agrarian Reform,3
D2A,EconTax,Lec,Economics with Taxation and Land Reform,3
E4AS,Ecoplan,Lec,Economics Planning and Strategy,3
M1A,Micecon,Lec,Microeconomics,3
M1C,Micecon,Lec,Microeconomics,3
K2A,Busopp1,Lec,Business Opportunities 1,3
N2A,Busopp1,Lec,Business Opportunities 1,3
K3A,Buspla2,Lec,Business Planning 2,3
F2A,Enbudev,Lec,Entrepreneurship and Business Development,3
M2C,Enbudev,Lec,Entrepreneurship and Business Development,3
Y3A,Mgtele1,Lec,Entrepreneurial Management,3
S3A,Ecores1,Lec,Economic Research 1,3
F4B,Finprac,Lec,Practicum / Work Integrated Learning,6
M3F,Makres1,Lec,Marketing Research 1,3
M3A,Markstr,Lec,Strategic Marketing Management,3
M3B,Markstr,Lec,Strategic Marketing Management,3
M3C,Markstr,Lec,Strategic Marketing Management,3
M3D,Markstr,Lec,Strategic Marketing Management,3
E2AS,Mimecon,Lec,Micro-Macro Economics,3
U3A,Basicon,Lec,Basic Economics w/ Taxation & Agrarian Reform,3
P2A,Basicon',Lec,Basic Economics,3
P2C,Basicon',Lec,Basic Economics,3
O2A,EconTax,Lec,Economics with Taxation and Land Reform,3
V2A,EconTax,Lec,Economics with Taxation and Land Reform,3
L3A,Macecon,Lec,Macroeconomics,3
A3A,Adv-two*,Lec,Advance Financial Accounting and Reporting,3
A3B,Adv-two*,Lec,Advance Financial Accounting and Reporting,3
A4A,Buspoli*,Lec,Business Policy & Strategy,3
A4B,Buspoli*,Lec,Business Policy & Strategy,3
A4C,Buspoli*,Lec,Business Policy & Strategy,3
AT4B,Buspoli*,Lec,Business Policy & Strategy,3
AT4C,Buspoli*,Lec,Business Policy & Strategy,3
AT4D,Buspoli*,Lec,Business Policy & Strategy,3
A3A,Finman1,Lec,Financial Management 1,3
A3B,Finman1,Lec,Financial Management 1,3
AT4F,Accthes2,Lec,Accounting Thesis,3
F3A,Fincapi,Lec,Capital Markets,3
F3B,Fincapi,Lec,Capital Markets,3
F3C,Fincapi,Lec,Capital Markets,3
F1A,Finmark,Lec,Fin. Market w/ Prin. of Money,3
M1A,Finmark,Lec,Fin. Market w/ Prin. of Money,3
M1B,Finmark,Lec,Fin. Market w/ Prin. of Money,3
S1A,Finmark,Lec,Fin. Market w/ Prin. of Money,3
S3A,Econpro,Lec,Project Development Management,3
S3A,Ecostra,Lec,Strategic Corporate Development,3
AT2C,Micecon*,Lec,Microeconomic Theory & Practice,3
A3A,Negotin,Lec,Negotiable Instruments,3
A3B,Negotin,Lec,Negotiable Instruments,3
L2A,Fin-Acc,Lec,Financial Accounting,3
M2A,Fin-Acc,Lec,Financial Accounting,3
D3A,IECostA,Lec,IE Cost Accounting,3
D3B,IECostA,Lec,IE Cost Accounting,3
IT2B,EconTax,Lec,Economics with Taxation and Land Reform,3
AT2B,Macecon,Lec,Macroeconomics,3
AT4A,Salesag*,Lec,Sales,3
AT4B,Salesag*,Lec,Sales,3
K2A,Busifin,Lec,Business Finance,3
N2A,Busifin,Lec,Business Finance,3
M2B,Enbudev,Lec,Entrepreneurship and Business Development,3
K3A,Entele3,Lec,Venture Capital,3
N1A,Humborg,Lec,Human Behavior in Organizations,3
A1A,Humborg,Lec,Human Behavior in Organizations,3
A1C,Humborg,Lec,Human Behavior in Organizations,3
A1D,Humborg,Lec,Human Behavior in Organizations,3
AT1B,Humborg,Lec,Human Behavior in Organizations,3
M1A,Humborg,Lec,Human Behavior in Organizations,3
Y1A,Humborg,Lec,Human Behavior in Organizations,3
F4C,Finprac,Lec,Practicum / Work Integrated Learning,6
F3A,Finstra,Lec,Strategic Financial Mangement,3
F3B,Finstra,Lec,Strategic Financial Mangement,3
F3C,Finstra,Lec,Strategic Financial Mangement,3
A1C,Funacco2,Lec,Fundamentals of Accounting,6
AT3B,Finman1,Lec,Financial Management 1,3
AT2C,Fin-two**,Lec,Financial Accounting & Reporting,6
AT1A,Humborg,Lec,Human Behavior in Organizations,3
F1A,Humborg,Lec,Human Behavior in Organizations,3
J1A,Humborg,Lec,Human Behavior in Organizations,3
J1B,Humborg,Lec,Human Behavior in Organizations,3
L1A,Humborg,Lec,Human Behavior in Organizations,3
M1C,Humborg,Lec,Human Behavior in Organizations,3
A1B,Humborg,Lec,Human Behavior in Organizations,3
H1A,Humborg,Lec,Human Behavior in Organizations,3
M1B,Humborg,Lec,Human Behavior in Organizations,3
R1A,Humborg,Lec,Human Behavior in Organizations,3
Y4A,Mgtprac,Lec,Practicum / Work Integrated Learning,6
L4A,Envilaw,Lec,Environmental Law,3
L3A,Legwrit2,Lec,Legal Writing 2,3
AT4D,Salesag*,Lec,Sales,3
A1A,Basifin,Lec,Basic Finance,3
A1B,Basifin,Lec,Basic Finance,3
F3B,Finres 1,Lec,Financial Research 1,3
F3D,Finres 1,Lec,Financial Research 1,3
Y2A,Micecon,Lec,Microeconomics,3
A2A,Oblicon,Lec,Obligations and Contracts,3
L2A,Statcon,Lec,Statutory Construction,3
AT3A,Bus-tax*,Lec,Business and Transfer Taxes,3
AT3B,Bus-tax*,Lec,Business and Transfer Taxes,3
K2A,CostAcc,Lec,Cost Accounting,3
AT3C,Bus-tax*,Lec,Business and Transfer Taxes,3
AT3D,Bus-tax*,Lec,Business and Transfer Taxes,3
N2A,CostAcc,Lec,Cost Accounting,3
L4A,Elecad,Lec,Election Administration and Politics,3
L4A,Elecad,Lec,Election Administration and Politics,3
L4B,Elecad,Lec,Election Administration and Politics,3
L4B,Elecad,Lec,Election Administration and Politics,3
L4B,Envilaw,Lec,Environmental Law,3
H2A,Basiacc,Lec,Basic Accounting,3
AT3D,Costing,Lec,Accounting & Management of Cost,6
L3A,Inc-Tax,Lec,Philippine Tax System & Income Taxation,3
AT4C,Mac-two,Lec,Managerial Accounting II,3
AT4D,Mac-two,Lec,Managerial Accounting II,3
AT3C,Lawbusi,Lec,Law on Business Organizations,3
AT3D,Lawbusi,Lec,Law on Business Organizations,3
Y3A,Mgtele2,Lec,Logistic & Design,3
AT4A,Intaud,Lec,Internal Auditing,6
AT4B,Intaud,Lec,Internal Auditing,6
A2A,Fin-two**,Lec,Financial Accounting & Reporting,6
A2B,Fin-two**,Lec,Financial Accounting & Reporting,6
A4A,Mac-two,Lec,Managerial Accounting II,3
A4B,Mac-two,Lec,Managerial Accounting II,3
A4C,Mac-two,Lec,Managerial Accounting II,3
L4A,Litlaw,Lec,Introduction to Litigation,3
L4B,Litlaw,Lec,Introduction to Litigation,3
M4E,Markpra,Lec,Practicum / Work Integrated Learning,6
M3A,Markret,Lec,Retail Marketing Management,3
M3B,Markret,Lec,Retail Marketing Management,3
M3C,Markret,Lec,Retail Marketing Management,3
M3D,Markret,Lec,Retail Marketing Management,3
M4A,Markpra,Lec,Practicum / Work Integrated Learning,6
M4B,Markpra,Lec,Practicum / Work Integrated Learning,6
M3A,Marksal,Lec,Prof. Salesmanship and Sales Management,3
M3B,Marksal,Lec,Prof. Salesmanship and Sales Management,3
M3C,Marksal,Lec,Prof. Salesmanship and Sales Management,3
M3D,Marksal,Lec,Prof. Salesmanship and Sales Management,3
L4A,Polifor,Lec,Policy Formulation & Implementation,3
L4B,Polifor,Lec,Policy Formulation & Implementation,3
F2A,Fin-Acc,Lec,Financial Accounting,3
F2B,Fin-Acc,Lec,Financial Accounting,3
P2B,Basicon',Lec,Basic Economics,3
D2B,EconTax,Lec,Economics with Taxation and Land Reform,3
IT2A,EconTax,Lec,Economics with Taxation and Land Reform,3
AT2B,Micecon*,Lec,Microeconomic Theory & Practice,3
IS4A,Basicon',Lec,Basic Economics,3
AT3A,Lawbusi,Lec,Law on Business Organizations,3
AT3B,Lawbusi,Lec,Law on Business Organizations,3
K3A,Oblicon,Lec,Obligations and Contracts,3
A1C,Basifin,Lec,Basic Finance,3
A1D,Basifin,Lec,Basic Finance,3
F3A,Fincredi,Lec,Credit and Collection,3
F3B,Fincredi,Lec,Credit and Collection,3
F3C,Fincredi,Lec,Credit and Collection,3
F4A,Finprac,Lec,Practicum / Work Integrated Learning,6
J3B,Basiacc,Lec,Basic Accounting,3
A1A,Funacco2,Lec,Fundamentals of Accounting,6
A1B,Funacco2,Lec,Fundamentals of Accounting,6
A3A,Audit-1*,Lec,Assurance Principles,6
A3B,Audit-1*,Lec,Assurance Principles,6
A4C,Manacon,Lec,Management Consultancy,3
AT4D,Accthes2,Lec,Accounting Thesis,3
L2A,Humanre,Lec,Human Resource Management,3
L2A,Prinmar,Lec,Principles of Marketing,3
N1A,Prinmar,Lec,Principles of Marketing,3
Y1A,Prinmar,Lec,Principles of Marketing,3
M3A,Compab2,Lec,Computer Business Application (SAP),3
M3B,Compab2,Lec,Computer Business Application (SAP),3
M3C,Compab2,Lec,Computer Business Application (SAP),3
M3D,Compab2,Lec,Computer Business Application (SAP),3
M3A,Markad1*,Lec,Advertising Management,3
M3B,Markad1*,Lec,Advertising Management,3
M3C,Markad1*,Lec,Advertising Management,3
M3D,Markad1*,Lec,Advertising Management,3
A3A,Costing,Lec,Accounting & Management of Cost,6
A3B,Costing,Lec,Accounting & Management of Cost,6
AT3A,Costing,Lec,Accounting & Management of Cost,6
AT3C,Costing,Lec,Accounting & Management of Cost,6
L3A,Consprin,Lec,Constitutional Principles,3
L3A,Parskil,Lec,Paralegal Skills,3
P3C,Psyelec3,Lec,Labor Laws & Social Legislation,3
F3A,Finalys,Lec,Financial Analysis and Reporting,3
F3B,Finalys,Lec,Financial Analysis and Reporting,3
F3C,Finalys,Lec,Financial Analysis and Reporting,3
S2A,Fin-Acc,Lec,Financial Accounting,3
A2A,Busstat*,Lec,Business Statistics,3
A2B,Busstat*,Lec,Business Statistics,3
AT2C,Busstat*,Lec,Business Statistics,3
F3A,Finpoly,Lec,Monetary Policy and Central Banking,3
F3B,Finpoly,Lec,Monetary Policy and Central Banking,3
F3C,Finpoly,Lec,Monetary Policy and Central Banking,3
M4C,Markpra,Lec,Practicum / Work Integrated Learning,6
M4D,Markpra,Lec,Practicum / Work Integrated Learning,6
S4A,Econpra,Lec,Practicum / Work Integrated Learning,6
F4D,Finprac,Lec,Practicum / Work Integrated Learning,6
K2A,Operres,Lec,Operations Research (Quantec),3
N2A,Operres,Lec,Operations Research (Quantec),3
Y2A,Statres,Lec,Statistical Research,3
K4A,Buslmp2,Lec,Business Plan Implementation 2,5
A3A,Compacc*,Lec,Advance Computer Application for Accountants,3
A3B,Compacc*,Lec,Advance Computer Application for Accountants,3
AT3A,Compacc*,Lec,Advance Computer Application for Accountants,3
AT3B,Compacc*,Lec,Advance Computer Application for Accountants,3
AT3D,Compacc*,Lec,Advance Computer Application for Accountants,3
Y3A,Mtstrat,Lec,Strategic Information System,3
L3A,Familaw,Lec,Family Law,3
L4A,Legres2*,Lec,Legal Research 2,3
L4B,Legres2*,Lec,Legal Research 2,3
A2B,Oblicon,Lec,Obligations and Contracts,3
AT4C,Salesag*,Lec,Sales,3
IT2B,Actgpri,Lec,Acounting Principles,3
AT3B,Costing,Lec,Accounting & Management of Cost,6
Y2A,Fin-Acc,Lec,Financial Accounting,3
AT1B,Funacco2,Lec,Fundamentals of Accounting,6
A4A,Audit-2*,Lec,Applied Auditing,6
A4B,Audit-2*,Lec,Applied Auditing,6
A4C,Audit-2*,Lec,Applied Auditing,6
F2B,Enbudev,Lec,Entrepreneurship and Business Development,3
F2C,Enbudev,Lec,Entrepreneurship and Business Development,3
M2A,Enbudev,Lec,Entrepreneurship and Business Development,3
S2A,Enbudev,Lec,Entrepreneurship and Business Development,3
J3A,Totalqm,Lec,Total Quality Management,3
J3B,Totalqm,Lec,Total Quality Management,3
J3A,Basiacc,Lec,Basic Accounting,3
AT1A,Funacco2,Lec,Fundamentals of Accounting,6
AT3C,Finman1,Lec,Financial Management 1,3
AT3D,Finman1,Lec,Financial Management 1,3
M3A,Makres1,Lec,Marketing Research 1,3
M3B,Makres1,Lec,Marketing Research 1,3
M3A,Markdri,Lec,Distribution/Logistic Management,3
M3B,Markdri,Lec,Distribution/Logistic Management,3
M3C,Markdri,Lec,Distribution/Logistic Management,3
M3D,Markdri,Lec,Distribution/Logistic Management,3
K3A,Buspoli,Lec,Business Policy,3
AT4A,Buspoli*,Lec,Business Policy & Strategy,3
K3A,Entele1,Lec,Franchising,3
K3A,Entele2,Lec,Marketing Management,3
